Analysing People Survey Data With The orgsurveyr Package • orgsurveyr
…
Next we select just these columns from the survey data, make them numeric, and un-pivot using the tidyr::gather function to make a long/skinny dataframe with one row per metric/individual combination.

df_metrics <- df_survey %>%
  dplyr::select(ResponseID, metric_colnames) %>%
  dplyr::mutate_at(vars(metric_colnames), as.numeric) %>%
  dplyr::mutate_at(vars(ResponseID), as.character) %>%
  dplyr::rename(individual_id = ResponseID) %>%
  tidyr::gather( 'metric_id', 'value', -individual_id) 

This is the indiv_tall_df format that the orgsurveyr package requires. It is an example of a tidy data frame since each row represents one observation per individual/metric combination. It is extensible no matter how many individuals or metrics are considered since there are only three columns. The example data for this format is below:

tg_org_indiv_tall_df
#> # A tibble: 292 x 3
#>    individual_id metric_id value
#>    <chr>         <chr>     <dbl>
#>  1 1             test_var   7.27
#>  2 2             test_var   8.53
#>  3 3             test_var   9.21
#>  4 4             test_var  12.9 
#>  5 5             test_var   5.02
#>  6 6             test_var  11.0 
#>  7 7             test_var   6.33
#>  8 8             test_var  13.8 
#>  9 9             test_var   7.48
#> 10 10            test_var  11.7 
#> # ... with 282 more rows

We can also use the get_df_format function to confirm this:

get_df_format(tg_org_indiv_tall_df)
get_df_format(df_metrics)

Mapping individual to organisational unit

In this section we want to generate an individual to organisational unit mapping data frame. The data format is very simple, and is represented in the example below:

tg_org_indiv_minimal_df
#> # A tibble: 146 x 2
#>    individual_id unit_id
#>    <chr>         <chr>  
#>  1 1             1      
#>  2 2             1      
#>  3 3             1      
#>  4 4             3      
#>  5 5             3      
#>  6 6             4      
#>  7 7             4      
#>  8 8             4      
#>  9 9             5      
#> 10 10            5      
#> # ... with 136 more rows
…
check_tbl_graph_is_org(tidy_org)

Data Exploration With orgsurveyr

Generate summary data

With the data in the correct format, we can use the calc_summary_function to calculate organisational unit level summaries for the People Survey data. Below we do this for ees - the Employee Engagement Score:

org_summary_ees <- calc_summary_df(tidy_org, df=df_indiv_dept, tall_df=df_metrics, selected_vars = 'ees', is_cumulative = TRUE)

This output data frame is in the org_tall_df format which has one row per organisational unit/metric combination:

tg_org_summarised_df
#> # A tibble: 76 x 3
#>    unit_id metric_id value
#>    <chr>   <chr>     <dbl>
#>  1 1       test_var   10.2
#>  2 1       test_var2  20.2
#>  3 10      test_var   10.9
#>  4 10      test_var2  20.2
#>  5 11      test_var   10.4
#>  6 11      test_var2  20.8
#>  7 13      test_var   11.0
#>  8 13      test_var2  19.6
#>  9 14      test_var   10.2
#> 10 14      test_var2  21.1
#> # ... with 66 more rows
…
Generate a summary of the topic model. For each topic, the top words according to four different metrics are generated. Top probability is just the most common words, the other metrics use different forms of weighting to pick up words that are more exclusive to the topic. See the stm vignette for more information on the metrics.

summary(topic_model)

Preparing Topic Modelling Results For orgsurveyr

Aims

In topic modelling, we seek to assign topic proportions (gamma coefficients) to each document. To turn the topics into a metric that is associated with each individual, we therefore have to map the individual id to the topic id. In orgsurveyr parlance, each topic is a metric and the topic proportion for each individual is the value that we will seek to plot. What we are aiming to achieve is a data frame in the indiv_tall_df where each ‘metric’ is a topic, and each value is the gamma coefficient for that topic for a given individual:

tg_org_indiv_tall_df
#> # A tibble: 292 x 3
#>    individual_id metric_id value
#>    <chr>         <chr>     <dbl>
#>  1 1             test_var   7.27
#>  2 2             test_var   8.53
#>  3 3             test_var   9.21
#>  4 4             test_var  12.9 
#>  5 5             test_var   5.02
#>  6 6             test_var  11.0 
#>  7 7             test_var   6.33
#>  8 8             test_var  13.8 
#>  9 9             test_var   7.48
#> 10 10            test_var  11.7 
#> # ... with 282 more rows
…
