Simulating Organisations With tidygraph and ggraph • orgsurveyr
…
Simulate the people data

Simulating individual level variables

Now that we have determined how many people should be in each group, we can simulate them. Essentially we need a new data frame with one row per person, rather than one row per organisational unit. There are a variety of ways of doing this, the below example uses purrr::map and tidyr::unnest to simulate an individual level variable with mean of 10 and standard deviation of 3:

tg_individuals_df <- tg_group_size %>%
  activate(nodes) %>%
  as_tibble() %>%
  dplyr::select(unit_id, unit_size, depth, is_leaf) %>%
  dplyr::mutate(var1 = purrr::map(unit_size, ~rnorm(., mean=10, sd=3))) %>%
  tidyr::unnest()
tg_individuals_df
#> # A tibble: 205 x 5
#>    unit_id unit_size depth is_leaf  var1
#>      <int>     <dbl> <int> <lgl>   <dbl>
#>  1       1         2     0 FALSE    4.52
#>  2       1         2     0 FALSE   11.3 
#>  3       2         2     1 FALSE    6.51
#>  4       2         2     1 FALSE   12.0 
#>  5       3         1     1 FALSE   10.8 
#>  6       4         1     1 FALSE   11.7 
#>  7       5         2     1 FALSE    4.48
#>  8       5         2     1 FALSE   11.6 
#>  9       6         2     2 FALSE   16.5 
#> 10       6         2     2 FALSE    4.30
#> # ... with 195 more rows
…
Deriving a new group:individual mapping

What is required is a data frame that maps each unit with all of the units below it in the hierarchy. This can be achieved using the functionality of the tidygraph::map_bfs_back function in a similar way to how we propagated deletion status through the tree:

tg_expanded_df <- tg_group_size %>%
  mutate(child_id = tidygraph::map_bfs_back(unit_id, .f = function(node, path, ...) {
    .N()[c(node, path$node),]$unit_id
  })) %>%
  activate(nodes) %>%
  as_tibble() %>%
  dplyr::transmute(parent_id = unit_id, unit_id = child_id) %>%
  tidyr::unnest() %>%
  arrange(parent_id)
tg_expanded_df
#> # A tibble: 196 x 2
#>    parent_id unit_id
#>        <int>   <int>
#>  1         1       1
#>  2         1       2
#>  3         1       3
#>  4         1       4
#>  5         1       5
#>  6         1       6
#>  7         1       7
#>  8         1       8
#>  9         1       9
#> 10         1      10
#> # ... with 186 more rows

Calculating cumulative variables

We now need to join our individuals data frame with the cumulative mapping data frame, calculate our cumulative variables and then join the result back into the tidygraph object.

First calculate the cumulative variables:

tg_cumulative_df <- tg_expanded_df %>%
  inner_join(tg_individuals_df, by = 'unit_id') %>%
  group_by(parent_id) %>%
  summarise(cumulative_group_size = n(),
            cumulative_var1_mean = mean(var1))
tg_cumulative_df
#> # A tibble: 55 x 3
#>    parent_id cumulative_group_size cumulative_var1_mean
#>        <int>                 <int>                <dbl>
#>  1         1                   205                 9.68
#>  2         2                    46                 9.73
#>  3         3                    58                 9.78
#>  4         4                    33                 9.79
#>  5         5                    66                 9.55
#>  6         6                    10                10.3 
#>  7         7                    17                 9.68
#>  8         8                    17                 9.50
#>  9         9                     9                 9.39
#> 10        10                    16                 9.85
#> # ... with 45 more rows
…
